{
  "images" : [
    {
      "orientation" : "landscape",
      "idiom" : "tv",
      "filename" : "1920x1080.png",
      "extent" : "full-screen",
      "minimum-system-version" : "9.0",
      "scale" : "1x"
    }
  ],
  "info" : {
    "version" : 1,
    "author" : "xcode"
  }
}